Calculate D-score and DAZ
…
Reorganize the source data into a long matrix

Calculate D-score and DAZ

Combine D-score and DAZ with source data

Rename item names

The dscore package has built-in example data from the POPS study, called popsdemo. The data set is of class tbl_df from the dplyr package.

library("dscore")

popsdemo

## # A tibble: 100 × 67
##    patid gender gestationalage moment   age   occ daycor  dead Fixateseyes
##    <dbl>  <dbl>          <dbl>  <dbl> <dbl> <dbl>  <dbl> <dbl>       <dbl>
## 1      1      2       30.28571      2   161     1     95     0           0
## 2      1      2       30.28571      3   301     2    236     0         NaN
## 3      1      2       30.28571      4   511     3    443     0         NaN
## 4      1      2       30.28571      5  1008     4    940     0         NaN
## 5      4      1       32.42857      2   140     1     93     0           0
## 6      4      1       32.42857      3   231     2    184     0         NaN
## 7      4      1       32.42857      4   420     3    368     0         NaN
## 8      4      1       32.42857      5   763     4    716     0         NaN
## 9      5      1       31.57143      2   147     1     94     0           0
## 10     5      1       31.57143      3   238     2    185     0         NaN
## # ... with 90 more rows, and 58 more variables: Reactstospeech <dbl>,
## #   Movesbotharmsequallyasmuch <dbl>, Movesbothlegsequallyasmuch <dbl>,
## #   Liftschin <dbl>, Smilesback <dbl>, Followswitheyesandhead <dbl>,
## #   Handsopennowandthen <dbl>, Looksatownhands <dbl>,
## #   Vocalizesresponsively <dbl>,
## #   Remainspositionedwhenliftedunderthearmpits <dbl>,
## #   Holdsheadupfortyfivedegreesinproneposition <dbl>,
## #   Handsplayinginmidline <dbl>, Graspstoywithinreach <dbl>,
## #   Noheadlagwhenpulledtosittingposition <dbl>, Turnsheadtosound <dbl>,
…
data <- popsdemo %>% 
  select(patid, moment, age, daycor, GSFIXEYE:GSKIK) %>%
  gather(items, scores, GSFIXEYE:GSKIK, na.rm = TRUE) %>%
  mutate(scores = 1 - scores) %>% 
  arrange(patid, moment)

## Warning: attributes are not identical across measure variables; they will
## be dropped

data

## # A tibble: 1,385 × 6
##    patid moment   age daycor    items scores
##    <dbl>  <dbl> <dbl>  <dbl>    <chr>  <dbl>
## 1      1      2   161     95 GSFIXEYE      1
## 2      1      2   161     95  GSRSPCH      1
## 3      1      2   161     95   GSMARM      1
## 4      1      2   161     95   GSMLEG      1
## 5      1      2   161     95 GSLFCHIN      1
## 6      1      2   161     95  GSSMILE      1
## 7      1      2   161     95   GSFEYE      1
## 8      1      2   161     95  GSHOPEN      1
## 9      1      2   161     95   GSLKHN      1
## 10     1      2   161     95  GSVOCAL      1
## # ... with 1,375 more rows
…
